{
  "$schema": "https://www.krakend.io/schema/v3.json",
  "version": 3,
  "name": "KrakenD - API Gateway",
  "timeout": "3000ms",
  "cache_ttl": "300s",
  "output_encoding": "json",
  "port": 8080,
  "host": ["http://localhost:8081"],
  "extra_config": {
    "security/cors": {
      "allow_origins": [
        "*"
      ],
      "allow_methods": [
        "GET",
        "HEAD",
        "POST"
      ],
      "expose_headers": [
        "Content-Length",
        "Content-Type",
        "Authorization"
      ],
      "allow_headers": [
        "Accept-Language",
        "Authorization"
      ],
      "max_age": "12h",
      "allow_credentials": true,
      "debug": true
    }
  },
  "endpoints": [
    {
      "endpoint": "/v1/svc1/hello",
      "extra_config": {
        "auth/validator": {
            "alg": "RS256",
            "jwk_url": "http://keycloak:8080/realms/myrealm/protocol/openid-connect/certs",
            "disable_jwk_security": true
        }
    },
      "backend": [
        {
          "url_pattern": "/v1/helloworld",
          "host": [
            "http://microservice1:3000"
          ]
        }
      ]
    },
    {
      "endpoint": "/v1/svc2/hello",
      "extra_config": {
        "auth/validator": {
            "alg": "RS256",
            "jwk_url": "http://keycloak:8080/realms/myrealm/protocol/openid-connect/certs",
            "disable_jwk_security": true
        }
    },
      "backend": [
        {
          "url_pattern": "/v1/helloworld",
          "host": [
            "http://microservice2:8000"
          ]
        }
      ]
    }
  ]
}